
{
    "resource": "/",
    "path": "/",
    "httpMethod": "GET",
    "headers": {
        "accept": "text/html,application/xhtml+xml,application/xml;q=0.9,image/webp,image/apng,*/*;q=0.8,application/signed-exchange;v=b3;q=0.9",
        "accept-encoding": "gzip, deflate, br",
        "accept-language": "en-US,en;q=0.9",
        "Host": "z3xl29w6d4.execute-api.us-east-1.amazonaws.com",
        "sec-fetch-dest": "document",
        "sec-fetch-mode": "navigate",
        "sec-fetch-site": "none",
        "upgrade-insecure-requests": "1",
        "User-Agent": "Mozilla/5.0 (Linux; Android 9; JKM-LX2) AppleWebKit/537.36 (KHTML, like Gecko) Chrome/80.0.3987.149 Mobile Safari/537.36",
        "X-Amzn-Trace-Id": "Root=1-5e8d65cf-952650e02efe6330af3e15d8",
        "X-Forwarded-For": "175.157.45.173",
        "X-Forwarded-Port": "443",
        "X-Forwarded-Proto": "https"
    },
    "multiValueHeaders": {
        "accept": [
            "text/html,application/xhtml+xml,application/xml;q=0.9,image/webp,image/apng,*/*;q=0.8,application/signed-exchange;v=b3;q=0.9"
        ],
        "accept-encoding": [
            "gzip, deflate, br"
        ],
        "accept-language": [
            "en-US,en;q=0.9"
        ],
        "Host": [
            "z3xl29w6d4.execute-api.us-east-1.amazonaws.com"
        ],
        "sec-fetch-dest": [
            "document"
        ],
        "sec-fetch-mode": [
            "navigate"
        ],
        "sec-fetch-site": [
            "none"
        ],
        "upgrade-insecure-requests": [
            "1"
        ],
        "User-Agent": [
            "Mozilla/5.0 (Linux; Android 9; JKM-LX2) AppleWebKit/537.36 (KHTML, like Gecko) Chrome/80.0.3987.149 Mobile Safari/537.36"
        ],
        "X-Amzn-Trace-Id": [
            "Root=1-5e8d65cf-952650e02efe6330af3e15d8"
        ],
        "X-Forwarded-For": [
            "175.157.45.173"
        ],
        "X-Forwarded-Port": [
            "443"
        ],
        "X-Forwarded-Proto": [
            "https"
        ]
    },
    "queryStringParameters": {
        "client_id": "MyClientIdGivenAtTheSkillCreation-AccountLinkigPage",
        "redirect_uri": "https://pitangui.amazon.com/api/skill/link/M1VRKBM5629A29",
        "response_type": "code",
        "scope": "profile:CopeGivenAtTheSkillCreation-AccountLinkigPage",
        "state": "A2SAAEAEECopuo4niZaH62cjBWfXAMB4PKb5l_rOwir4VwpP7QmSTnlxp4O9iv7_fswOM45efP8uuWqY3ot5ZS9zoeCc6IIAZbbPM_UONheedd7IDYaW2iKgq32wBIzHl8glSWQYfUFkJ353G0Q-UFllOL2XWVSvu1aYv0QjgO-V7AJtej3QOThjwhIa3wxaQLvdPzMAdakL3ZFLZpxx7pEM4n8wNAMb83OkaFisEzqP0Al7MxcW25WSNMdwO9FoUp0WGuwXdjZQyvQP0KO23UtFpoCvAdX9YSnbaSEMA4gjs38H_6CYlMSUn78-VfDmzdHJLHcXRg0da1n6LhxtOcLX7CK2S8gMwlLnxljODXvziDNfYWnPOE21WOFnpEOxtQ3Tn9ZohK-Dve6V9nEPgs2eAi6OIoY0sRiDp8oflz0mYjCpp05VQiT1GLYXhi4Xihrv7MikHQlRa7uItXS23ku9FLToNVYsc3a1GBh0nN-Xq6pPdZ9_Txh3hMDxQ_FRzz7IeM4gkGtTYp3CYCu-2sv8qfJMI3JnNmKRFEmpd0XFg4Qwd4nPtrUS_FGg_W27xHf9aOPVwdxVCQK0ROi4HJ0vDz9snf6cgULT3T5LRupF3qLElWAiEWmPehblhozTZz74ih5tPmaFEAa9yD8zGKEzEqPG8NPow"
    },
    "multiValueQueryStringParameters": {
        "client_id": [
            "MyClientIdGivenAtTheSkillCreation-AccountLinkigPage"
        ],
        "redirect_uri": [
            "https://pitangui.amazon.com/api/skill/link/M1VRKBM5629A29"
        ],
        "response_type": [
            "code"
        ],
        "scope": [
            "profile:CopeGivenAtTheSkillCreation-AccountLinkigPage"
        ],
        "state": [
            "A2SAAEAEECopuo4niZaH62cjBWfXAMB4PKb5l_rOwir4VwpP7QmSTnlxp4O9iv7_fswOM45efP8uuWqY3ot5ZS9zoeCc6IIAZbbPM_UONheedd7IDYaW2iKgq32wBIzHl8glSWQYfUFkJ353G0Q-UFllOL2XWVSvu1aYv0QjgO-V7AJtej3QOThjwhIa3wxaQLvdPzMAdakL3ZFLZpxx7pEM4n8wNAMb83OkaFisEzqP0Al7MxcW25WSNMdwO9FoUp0WGuwXdjZQyvQP0KO23UtFpoCvAdX9YSnbaSEMA4gjs38H_6CYlMSUn78-VfDmzdHJLHcXRg0da1n6LhxtOcLX7CK2S8gMwlLnxljODXvziDNfYWnPOE21WOFnpEOxtQ3Tn9ZohK-Dve6V9nEPgs2eAi6OIoY0sRiDp8oflz0mYjCpp05VQiT1GLYXhi4Xihrv7MikHQlRa7uItXS23ku9FLToNVYsc3a1GBh0nN-Xq6pPdZ9_Txh3hMDxQ_FRzz7IeM4gkGtTYp3CYCu-2sv8qfJMI3JnNmKRFEmpd0XFg4Qwd4nPtrUS_FGg_W27xHf9aOPVwdxVCQK0ROi4HJ0vDz9snf6cgULT3T5LRupF3qLElWAiEWmPehblhozTZz74ih5tPmaFEAa9yD8zGKEzEqPG8NPow"
        ]
    },
    "pathParameters": null,
    "stageVariables": null,
    "requestContext": {
        "resourceId": "h62nekedzb",
        "resourcePath": "/",
        "httpMethod": "GET",
        "extendedRequestId": "KpzYdEEmoAMFsGg=",
        "requestTime": "08/Apr/2020:05:49:03 +0000",
        "path": "/NewStage",
        "accountId": "325574568085",
        "protocol": "HTTP/1.1",
        "stage": "NewStage",
        "domainPrefix": "z3xl29w6d4",
        "requestTimeEpoch": 1586324943661,
        "requestId": "63e4664a-91af-40fe-ba4b-a5cde1025961",
        "identity": {
            "cognitoIdentityPoolId": null,
            "accountId": null,
            "cognitoIdentityId": null,
            "caller": null,
            "sourceIp": "175.157.45.173",
            "principalOrgId": null,
            "accessKey": null,
            "cognitoAuthenticationType": null,
            "cognitoAuthenticationProvider": null,
            "userArn": null,
            "userAgent": "Mozilla/5.0 (Linux; Android 9; JKM-LX2) AppleWebKit/537.36 (KHTML, like Gecko) Chrome/80.0.3987.149 Mobile Safari/537.36",
            "user": null
        },
        "domainName": "z3xl29w6d4.execute-api.us-east-1.amazonaws.com",
        "apiId": "z3xl29w6d4"
    },
    "body": null,
    "isBase64Encoded": false
}